id,x,y,z,ow,ox,oy,oz,vis,sel,lock,label,desc,associatedNodeID,,
vtkMRMLMarkupsFiducialNode_0,-10.212013682533872,33.307276611301056,11.791718768646986,0,0,0,1,1,1,0,F-1,nan,vtkMRMLScalarVolumeNode1,2,0
vtkMRMLMarkupsFiducialNode_1,-9.30218558332434,31.01774458043749,12.841735259003006,0,0,0,1,1,1,0,F-2,nan,vtkMRMLScalarVolumeNode1,2,0
