id,x,y,z,ow,ox,oy,oz,vis,sel,lock,label,desc,associatedNodeID,,
vtkMRMLMarkupsFiducialNode_0,-10.546448928247164,18.904444980664287,-3.1571567075038263,0,0,0,1,1,1,0,F-1,nan,vtkMRMLScalarVolumeNode1,2,0
vtkMRMLMarkupsFiducialNode_1,-8.274400916390528,18.48772859739943,-5.882993352240973,0,0,0,1,1,1,0,F-2,nan,vtkMRMLScalarVolumeNode1,2,0
