id,x,y,z,ow,ox,oy,oz,vis,sel,lock,label,desc,associatedNodeID,,
vtkMRMLMarkupsFiducialNode_0,-10.385041981928888,8.689498748627443,-14.730476596874803,0,0,0,1,1,1,0,F-1,nan,vtkMRMLScalarVolumeNode1,2,0
vtkMRMLMarkupsFiducialNode_1,-10.714009669411151,9.059067154156901,-16.15141351046494,0,0,0,1,1,1,0,F-2,nan,vtkMRMLScalarVolumeNode1,2,0
vtkMRMLMarkupsFiducialNode_2,8.85013559045606,16.87446020367807,-16.450790960903202,0,0,0,1,1,1,0,F-3,nan,vtkMRMLScalarVolumeNode1,2,0
vtkMRMLMarkupsFiducialNode_3,10.534426263708466,16.828980008104704,-13.884106462841713,0,0,0,1,1,1,0,F-4,nan,vtkMRMLScalarVolumeNode1,2,0
