id,x,y,z,ow,ox,oy,oz,vis,sel,lock,label,desc,associatedNodeID,,
vtkMRMLMarkupsFiducialNode_0,6.384996452870727,24.914083398676315,4.051359334805996,0,0,0,1,1,1,0,F-1,nan,vtkMRMLScalarVolumeNode1,2,0
vtkMRMLMarkupsFiducialNode_1,17.404296433341745,24.024535567920513,14.53227208910462,0,0,0,1,1,1,0,F-2,nan,vtkMRMLScalarVolumeNode1,2,0
