id,x,y,z,ow,ox,oy,oz,vis,sel,lock,label,desc,associatedNodeID,,
vtkMRMLMarkupsFiducialNode_0,0.32773255749083996,18.40999183075395,18.725732775708675,0,0,0,1,1,1,0,F-1,nan,vtkMRMLScalarVolumeNode1,2,0
vtkMRMLMarkupsFiducialNode_1,0.7253073655927192,19.297986781791604,20.900998326469782,0,0,0,1,1,1,0,F-2,nan,vtkMRMLScalarVolumeNode1,2,0
vtkMRMLMarkupsFiducialNode_2,23.0853331691871,18.34900120913315,19.67862904919653,0,0,0,1,1,1,0,F-3,nan,vtkMRMLScalarVolumeNode1,2,0
vtkMRMLMarkupsFiducialNode_3,23.829132264843008,18.027401414696527,22.539354154009573,0,0,0,1,1,1,0,F-4,nan,vtkMRMLScalarVolumeNode1,2,0
