id,x,y,z,ow,ox,oy,oz,vis,sel,lock,label,desc,associatedNodeID,,
vtkMRMLMarkupsFiducialNode_0,0.6594816301852515,20.219526184468464,13.257141995224654,0,0,0,1,1,1,0,F-1,nan,vtkMRMLScalarVolumeNode1,2,0
vtkMRMLMarkupsFiducialNode_1,3.1583615160791787,18.417527325592566,16.627110777644443,0,0,0,1,1,1,0,F-2,nan,vtkMRMLScalarVolumeNode1,2,0
