id,x,y,z,ow,ox,oy,oz,vis,sel,lock,label,desc,associatedNodeID,,
vtkMRMLMarkupsFiducialNode_0,6.220921563521099,-6.277426932407163,-60.085220508255254,0,0,0,1,1,1,0,F-1,nan,vtkMRMLScalarVolumeNode1,2,0
vtkMRMLMarkupsFiducialNode_1,6.446003084155297,-2.8064764799537123,-57.30078874389461,0,0,0,1,1,1,0,F-2,nan,vtkMRMLScalarVolumeNode1,2,0
