id,x,y,z,ow,ox,oy,oz,vis,sel,lock,label,desc,associatedNodeID,,
vtkMRMLMarkupsFiducialNode_0,-10.177459319705214,36.42646499847347,19.715461198320384,0,0,0,1,1,1,0,F-1,nan,vtkMRMLScalarVolumeNode1,2,0
vtkMRMLMarkupsFiducialNode_1,-9.898433069409526,38.769555256309154,23.18761077302734,0,0,0,1,1,1,0,F-2,nan,vtkMRMLScalarVolumeNode1,2,0
