id,x,y,z,ow,ox,oy,oz,vis,sel,lock,label,desc,associatedNodeID,,
vtkMRMLMarkupsFiducialNode_0,-8.630804778281538,8.98822570691765,1.9679915288429457,0,0,0,1,1,1,0,F-1,nan,vtkMRMLScalarVolumeNode1,2,0
vtkMRMLMarkupsFiducialNode_1,-10.683432796789646,9.086207194391832,1.9984518677282381,0,0,0,1,1,1,0,F-2,nan,vtkMRMLScalarVolumeNode1,2,0
