id,x,y,z,ow,ox,oy,oz,vis,sel,lock,label,desc,associatedNodeID,,
vtkMRMLMarkupsFiducialNode_0,-12.62109972936299,26.488680722743208,-1.3957897252907074,0,0,0,1,1,1,0,F-1,nan,vtkMRMLScalarVolumeNode1,2,0
vtkMRMLMarkupsFiducialNode_1,-10.182772770688214,27.368198742011863,-1.5947575200599886,0,0,0,1,1,1,0,F-2,nan,vtkMRMLScalarVolumeNode1,2,0
3,7.089988411956215,31.028559651071603,6.182557854141838,0,0,0,1,1,1,0,F-3,,vtkMRMLScalarVolumeNode1,2,0
4,5.303817956513324,29.10332817503092,4.287912122663547,0,0,0,1,1,1,0,F-4,,,2,0
