id,x,y,z,ow,ox,oy,oz,vis,sel,lock,label,desc,associatedNodeID,,
vtkMRMLMarkupsFiducialNode_0,-23.87795132699912,21.417417802475107,13.097001674124927,0,0,0,1,1,1,0,F-1,nan,vtkMRMLScalarVolumeNode1,2,0
vtkMRMLMarkupsFiducialNode_1,-23.74741666754034,20.493073763263958,16.14322243872828,0,0,0,1,1,1,0,F-2,nan,vtkMRMLScalarVolumeNode1,2,0
