id,x,y,z,ow,ox,oy,oz,vis,sel,lock,label,desc,associatedNodeID,,
vtkMRMLMarkupsFiducialNode_0,-1.5813436482905088,24.817478731979875,17.92342787425092,0,0,0,1,1,1,0,F-1,nan,vtkMRMLScalarVolumeNode1,2,0
vtkMRMLMarkupsFiducialNode_1,0.2541681131269717,28.888468851712755,20.667720394594088,0,0,0,1,1,1,0,F-2,nan,vtkMRMLScalarVolumeNode1,2,0
