id,x,y,z,ow,ox,oy,oz,vis,sel,lock,label,desc,associatedNodeID,,
vtkMRMLMarkupsFiducialNode_0,-9.042809854927329,11.697666002184372,2.998432236632145,0,0,0,1,1,1,0,F-1,nan,vtkMRMLScalarVolumeNode1,2,0
vtkMRMLMarkupsFiducialNode_1,-6.456368259319523,10.53155166032313,2.889657353028158,0,0,0,1,1,1,0,F-2,nan,vtkMRMLScalarVolumeNode1,2,0
