id,x,y,z,ow,ox,oy,oz,vis,sel,lock,label,desc,associatedNodeID,,
vtkMRMLMarkupsFiducialNode_0,-9.665451070422849,43.739086743560435,-22.54842811434145,0,0,0,1,1,1,0,F-1,nan,vtkMRMLScalarVolumeNode1,2,0
vtkMRMLMarkupsFiducialNode_1,-10.250171875701811,44.45432231865886,-20.32295683071758,0,0,0,1,1,1,0,F-2,nan,vtkMRMLScalarVolumeNode1,2,0
