id,x,y,z,ow,ox,oy,oz,vis,sel,lock,label,desc,associatedNodeID,,
vtkMRMLMarkupsFiducialNode_0,19.175668939079717,10.444155554052877,13.814552834481285,0,0,0,1,1,1,0,F-1,nan,vtkMRMLScalarVolumeNode1,2,0
vtkMRMLMarkupsFiducialNode_1,21.250389354755516,8.786320549474889,15.83481674352228,0,0,0,1,1,1,0,F-2,nan,vtkMRMLScalarVolumeNode1,2,0
