id,x,y,z,ow,ox,oy,oz,vis,sel,lock,label,desc,associatedNodeID,,
vtkMRMLMarkupsFiducialNode_0,-8.687406311407022,20.759904778335642,7.126208215409114,0,0,0,1,1,1,0,F-1,nan,vtkMRMLScalarVolumeNode1,2,0
vtkMRMLMarkupsFiducialNode_1,-10.42077430464197,20.471012568332775,8.179136828325875,0,0,0,1,1,1,0,F-2,nan,vtkMRMLScalarVolumeNode1,2,0
vtkMRMLMarkupsFiducialNode_2,-2.055074608337849,16.934290060798823,13.780670525405469,0,0,0,1,1,1,0,F-3,nan,vtkMRMLScalarVolumeNode1,2,0
vtkMRMLMarkupsFiducialNode_3,-0.1609329823265476,19.875592424957322,11.691207441515203,0,0,0,1,1,1,0,F-4,nan,vtkMRMLScalarVolumeNode1,2,0
vtkMRMLMarkupsFiducialNode_44,-5.289106822488985,19.765395301407015,5.857029101754708,0,0,0,1,1,1,0,F-5,,vtkMRMLScalarVolumeNode1,2,0
vtkMRMLMarkupsFiducialNode_45,-4.08512408606043,20.19009729705721,3.968764336575889,0,0,0,1,1,1,0,F-6,,vtkMRMLScalarVolumeNode1,2,0
