id,x,y,z,ow,ox,oy,oz,vis,sel,lock,label,desc,associatedNodeID,,
vtkMRMLMarkupsFiducialNode_0,-1.3511353194350417,20.201104802241446,12.933219978014005,0,0,0,1,1,1,0,F-1,nan,vtkMRMLScalarVolumeNode1,2,0
vtkMRMLMarkupsFiducialNode_1,-1.3178137439807396,23.4538125412601,19.093685690721976,0,0,0,1,1,1,0,F-2,nan,vtkMRMLScalarVolumeNode1,2,0
