id,x,y,z,ow,ox,oy,oz,vis,sel,lock,label,desc,associatedNodeID,,
vtkMRMLMarkupsFiducialNode_0,8.242948730516055,14.773790331558859,11.172502695735593,0,0,0,1,1,1,0,F-1,nan,vtkMRMLScalarVolumeNode1,2,0
vtkMRMLMarkupsFiducialNode_1,3.813260742770297,12.386447454631293,9.665253628681855,0,0,0,1,1,1,0,F-2,nan,vtkMRMLScalarVolumeNode1,2,0
