id,x,y,z,ow,ox,oy,oz,vis,sel,lock,label,desc,associatedNodeID,,
vtkMRMLMarkupsFiducialNode_0,-15.077387077052968,27.579833196655525,-2.2534504174449577,0,0,0,1,1,1,0,F-1,nan,vtkMRMLScalarVolumeNode1,2,0
vtkMRMLMarkupsFiducialNode_1,-17.771888036617387,28.002221128122606,-3.1427791471456836,0,0,0,1,1,1,0,F-2,nan,vtkMRMLScalarVolumeNode1,2,0
