id,x,y,z,ow,ox,oy,oz,vis,sel,lock,label,desc,associatedNodeID,,
vtkMRMLMarkupsFiducialNode_0,25.070261328919713,11.623725708670593,18.043036264162566,0,0,0,1,1,1,0,F-1,nan,vtkMRMLScalarVolumeNode1,2,0
vtkMRMLMarkupsFiducialNode_1,26.80857588966474,10.257307868027386,19.005452203811146,0,0,0,1,1,1,0,F-2,nan,vtkMRMLScalarVolumeNode1,2,0
