id,x,y,z,ow,ox,oy,oz,vis,sel,lock,label,desc,associatedNodeID,,
vtkMRMLMarkupsFiducialNode_0,1.2524919778454338,18.195846280863325,5.500366381405856,0,0,0,1,1,1,0,F-1,nan,vtkMRMLScalarVolumeNode1,2,0
vtkMRMLMarkupsFiducialNode_1,-1.801111003460116,15.983400586919839,4.91052680828268,0,0,0,1,1,1,0,F-2,nan,vtkMRMLScalarVolumeNode1,2,0
