{
    "training list": [
        "/path/to/sub-220/ses-20110626",
        "/path/to/sub-343/ses-20121210",
        "/path/to/sub-036/ses-20101030",
        "/path/to/sub-283/ses-20110505",
        "/path/to/sub-104/ses-20100228",
        "/path/to/sub-215/ses-20110721",
        "/path/to/sub-426/ses-20130713",
        "/path/to/sub-329/ses-20110823",
        "/path/to/sub-288/ses-20110503",
        "/path/to/sub-128/ses-20120124",
        "/path/to/sub-035/ses-20101019",
        "/path/to/sub-308/ses-20110401",
        "/path/to/sub-234/ses-20111203",
        "/path/to/sub-006/ses-20101217",
        "/path/to/sub-186/ses-20110925",
        "/path/to/sub-043/ses-20101007",
        "/path/to/sub-328/ses-20110126",
        "/path/to/sub-134/ses-20111127",
        "/path/to/sub-002/ses-20110127",
        "/path/to/sub-269/ses-20110608",
        "/path/to/sub-492/ses-20151228",
        "/path/to/sub-340/ses-20121220",
        "/path/to/sub-462/ses-20140902",
        "/path/to/sub-247/ses-20110616",
        "/path/to/sub-490/ses-20151206",
        "/path/to/sub-131/ses-20120103",
        "/path/to/sub-217/ses-20110811",
        "/path/to/sub-425/ses-20130724",
        "/path/to/sub-261/ses-20110615",
        "/path/to/sub-069/ses-20100513",
        "/path/to/sub-484/ses-20140116",
        "/path/to/sub-411/ses-20131109",
        "/path/to/sub-078/ses-20100430",
        "/path/to/sub-037/ses-20100921",
        "/path/to/sub-429/ses-20130531",
        "/path/to/sub-439/ses-20130321",
        "/path/to/sub-345/ses-20121218",
        "/path/to/sub-437/ses-20130325",
        "/path/to/sub-188/ses-20111013",
        "/path/to/sub-030/ses-20101012",
        "/path/to/sub-268/ses-20110522",
        "/path/to/sub-106/ses-20100301",
        "/path/to/sub-402/ses-20140111",
        "/path/to/sub-228/ses-20110626",
        "/path/to/sub-334/ses-20110101",
        "/path/to/sub-408/ses-20131021",
        "/path/to/sub-304/ses-20110409",
        "/path/to/sub-265/ses-20110507",
        "/path/to/sub-454/ses-20141123",
        "/path/to/sub-193/ses-20110927",
        "/path/to/sub-489/ses-20151226",
        "/path/to/sub-039/ses-20101028",
        "/path/to/sub-075/ses-20100502",
        "/path/to/sub-026/ses-20101106",
        "/path/to/sub-451/ses-20141129",
        "/path/to/sub-415/ses-20131031",
        "/path/to/sub-319/ses-20110206",
        "/path/to/sub-130/ses-20111130",
        "/path/to/sub-079/ses-20100502",
        "/path/to/sub-207/ses-20110729",
        "/path/to/sub-065/ses-20100703",
        "/path/to/sub-474/ses-20140630",
        "/path/to/sub-427/ses-20130810",
        "/path/to/sub-129/ses-20120107",
        "/path/to/sub-279/ses-20110413",
        "/path/to/sub-278/ses-20110527",
        "/path/to/sub-335/ses-20110516",
        "/path/to/sub-476/ses-20140519",
        "/path/to/sub-485/ses-20140131",
        "/path/to/sub-051/ses-20100920",
        "/path/to/sub-336/ses-20110109",
        "/path/to/sub-251/ses-20110702",
        "/path/to/sub-120/ses-20100117",
        "/path/to/sub-317/ses-20110228",
        "/path/to/sub-284/ses-20110515",
        "/path/to/sub-420/ses-20130912",
        "/path/to/sub-464/ses-20140724",
        "/path/to/sub-197/ses-20110914",
        "/path/to/sub-318/ses-20110202",
        "/path/to/sub-287/ses-20110506",
        "/path/to/sub-307/ses-20110225",
        "/path/to/sub-062/ses-20100601",
        "/path/to/sub-276/ses-20110609",
        "/path/to/sub-482/ses-20140210",
        "/path/to/sub-466/ses-20140901",
        "/path/to/sub-274/ses-20110609",
        "/path/to/sub-471/ses-20140712",
        "/path/to/sub-424/ses-20130818",
        "/path/to/sub-405/ses-20131225",
        "/path/to/sub-141/ses-20111229",
        "/path/to/sub-353/ses-20121011",
        "/path/to/sub-127/ses-20100110",
        "/path/to/sub-245/ses-20110709",
        "/path/to/sub-475/ses-20140503",
        "/path/to/sub-224/ses-20110802",
        "/path/to/sub-203/ses-20110727",
        "/path/to/sub-413/ses-20131005",
        "/path/to/sub-211/ses-20110817",
        "/path/to/sub-185/ses-20111009",
        "/path/to/sub-076/ses-20100506",
        "/path/to/sub-432/ses-20130521",
        "/path/to/sub-458/ses-20140915",
        "/path/to/sub-470/ses-20140807",
        "/path/to/sub-254/ses-20110622",
        "/path/to/sub-216/ses-20110729",
        "/path/to/sub-460/ses-20140812",
        "/path/to/sub-022/ses-20101011",
        "/path/to/sub-325/ses-20110127",
        "/path/to/sub-315/ses-20110320",
        "/path/to/sub-256/ses-20110526",
        "/path/to/sub-163/ses-20111014",
        "/path/to/sub-242/ses-20110710",
        "/path/to/sub-434/ses-20130501",
        "/path/to/sub-461/ses-20140802",
        "/path/to/sub-264/ses-20110622",
        "/path/to/sub-351/ses-20121116",
        "/path/to/sub-418/ses-20130908",
        "/path/to/sub-081/ses-20100406",
        "/path/to/sub-311/ses-20110406",
        "/path/to/sub-294/ses-20110429",
        "/path/to/sub-258/ses-20110613",
        "/path/to/sub-293/ses-20110407",
        "/path/to/sub-248/ses-20110602",
        "/path/to/sub-053/ses-20100808",
        "/path/to/sub-263/ses-20110611",
        "/path/to/sub-109/ses-20100120",
        "/path/to/sub-435/ses-20130425",
        "/path/to/sub-021/ses-20101111",
        "/path/to/sub-459/ses-20140829",
        "/path/to/sub-183/ses-20111002",
        "/path/to/sub-419/ses-20130912",
        "/path/to/sub-214/ses-20110901",
        "/path/to/sub-299/ses-20110422",
        "/path/to/sub-240/ses-20110701",
        "/path/to/sub-034/ses-20101005",
        "/path/to/sub-187/ses-20111023",
        "/path/to/sub-423/ses-20130819",
        "/path/to/sub-324/ses-20110210",
        "/path/to/sub-291/ses-20110330",
        "/path/to/sub-282/ses-20110528",
        "/path/to/sub-330/ses-20110213",
        "/path/to/sub-005/ses-20101215",
        "/path/to/sub-194/ses-20110911",
        "/path/to/sub-347/ses-20121115",
        "/path/to/sub-208/ses-20110808",
        "/path/to/sub-144/ses-20111211",
        "/path/to/sub-275/ses-20110612",
        "/path/to/sub-157/ses-20111119",
        "/path/to/sub-453/ses-20141021",
        "/path/to/sub-172/ses-20111110",
        "/path/to/sub-101/ses-20100323",
        "/path/to/sub-417/ses-20130912",
        "/path/to/sub-473/ses-20140701",
        "/path/to/sub-339/ses-20110125",
        "/path/to/sub-331/ses-20110121",
        "/path/to/sub-341/ses-20121128",
        "/path/to/sub-491/ses-20151124",
        "/path/to/sub-047/ses-20100908",
        "/path/to/sub-239/ses-20110628",
        "/path/to/sub-401/ses-20140127",
        "/path/to/sub-178/ses-20111105",
        "/path/to/sub-165/ses-20111105",
        "/path/to/sub-486/ses-20140121",
        "/path/to/sub-262/ses-20110620",
        "/path/to/sub-441/ses-20130101",
        "/path/to/sub-225/ses-20110617",
        "/path/to/sub-066/ses-20100526",
        "/path/to/sub-286/ses-20110530",
        "/path/to/sub-073/ses-20100426",
        "/path/to/sub-421/ses-20130829",
        "/path/to/sub-337/ses-20110120",
        "/path/to/sub-271/ses-20110518",
        "/path/to/sub-332/ses-20110217",
        "/path/to/sub-179/ses-20111101",
        "/path/to/sub-465/ses-20140729",
        "/path/to/sub-222/ses-20110808",
        "/path/to/sub-119/ses-20091226",
        "/path/to/sub-344/ses-20121218",
        "/path/to/sub-151/ses-20111130",
        "/path/to/sub-111/ses-20100208",
        "/path/to/sub-306/ses-20110328",
        "/path/to/sub-316/ses-20110219",
        "/path/to/sub-204/ses-20110727",
        "/path/to/sub-428/ses-20130629",
        "/path/to/sub-430/ses-20130525",
        "/path/to/sub-189/ses-20110927",
        "/path/to/sub-310/ses-20110207",
        "/path/to/sub-277/ses-20110604",
        "/path/to/sub-195/ses-20111024",
        "/path/to/sub-266/ses-20110421",
        "/path/to/sub-259/ses-20110504",
        "/path/to/sub-280/ses-20110411",
        "/path/to/sub-091/ses-20100405",
        "/path/to/sub-045/ses-20101006",
        "/path/to/sub-159/ses-20111127",
        "/path/to/sub-092/ses-20100313",
        "/path/to/sub-125/ses-20100129",
        "/path/to/sub-354/ses-20121111",
        "/path/to/sub-333/ses-20110214",
        "/path/to/sub-191/ses-20111010",
        "/path/to/sub-270/ses-20110522",
        "/path/to/sub-457/ses-20140823",
        "/path/to/sub-007/ses-20101225",
        "/path/to/sub-121/ses-20100128",
        "/path/to/sub-352/ses-20121128",
        "/path/to/sub-148/ses-20111106",
        "/path/to/sub-243/ses-20110620",
        "/path/to/sub-431/ses-20130526",
        "/path/to/sub-105/ses-20100212",
        "/path/to/sub-436/ses-20130402",
        "/path/to/sub-013/ses-20101220",
        "/path/to/sub-103/ses-20100301",
        "/path/to/sub-289/ses-20110420",
        "/path/to/sub-171/ses-20111105",
        "/path/to/sub-488/ses-20140107",
        "/path/to/sub-015/ses-20101111"
    ],
    "validation list": [],
    "testing list": [
        "/path/to/sub-209/ses-20110724",
        "/path/to/sub-467/ses-20140817",
        "/path/to/sub-487/ses-20140214",
        "/path/to/sub-255/ses-20110526",
        "/path/to/sub-407/ses-20131207",
        "/path/to/sub-246/ses-20110622",
        "/path/to/sub-257/ses-20110517",
        "/path/to/sub-202/ses-20110912",
        "/path/to/sub-107/ses-20100206",
        "/path/to/sub-170/ses-20100422",
        "/path/to/sub-162/ses-20111102",
        "/path/to/sub-479/ses-20140415",
        "/path/to/sub-303/ses-20110314",
        "/path/to/sub-412/ses-20131030",
        "/path/to/sub-297/ses-20110316",
        "/path/to/sub-440/ses-20130105",
        "/path/to/sub-140/ses-20111208",
        "/path/to/sub-480/ses-20140208",
        "/path/to/sub-403/ses-20131228",
        "/path/to/sub-267/ses-20110618",
        "/path/to/sub-112/ses-20100121",
        "/path/to/sub-192/ses-20110930",
        "/path/to/sub-273/ses-20110530",
        "/path/to/sub-149/ses-20111126",
        "/path/to/sub-295/ses-20110505",
        "/path/to/sub-253/ses-20110628",
        "/path/to/sub-100/ses-20100213",
        "/path/to/sub-164/ses-20111124",
        "/path/to/sub-052/ses-20100920",
        "/path/to/sub-126/ses-20100105",
        "/path/to/sub-160/ses-20111010",
        "/path/to/sub-252/ses-20110522",
        "/path/to/sub-116/ses-20091229",
        "/path/to/sub-099/ses-20100321",
        "/path/to/sub-309/ses-20110317",
        "/path/to/sub-033/ses-20101021",
        "/path/to/sub-198/ses-20110922",
        "/path/to/sub-469/ses-20140705",
        "/path/to/sub-433/ses-20130414",
        "/path/to/sub-175/ses-20111004",
        "/path/to/sub-077/ses-20100414",
        "/path/to/sub-416/ses-20131029",
        "/path/to/sub-231/ses-20110617",
        "/path/to/sub-000/ses-20110101",
        "/path/to/sub-176/ses-20111113",
        "/path/to/sub-455/ses-20141113",
        "/path/to/sub-167/ses-20111013",
        "/path/to/sub-001/ses-20101222",
        "/path/to/sub-153/ses-20111127",
        "/path/to/sub-226/ses-20110621",
        "/path/to/sub-349/ses-20121111",
        "/path/to/sub-250/ses-20110525",
        "/path/to/sub-409/ses-20131203",
        "/path/to/sub-481/ses-20140201"
    ]
}